[
  {
    "nickname": "",
    "server": "",
    "port": "",
    "discordToken": "",

    "autoSendCommands": [
      ["", "", ""],
      ["", "", ""],
      ["", "", ""]
    ],
    "channelMapping": {
      "": "",
      "": ""
    },
    "ircOptions": {
      "floodProtection": true,
      "floodProtectionDelay": 1000
    },
    "ircNickColor": true,
    "commandCharacters": ["!"],
    "ignoreUsers":{
      "discord": ["", "", "", "", ""]

    }
  }
]